[
    {
        "pk": 8,
        "model": "chimere.propertymodel",
        "fields": {
            "available": false,
            "subcategories": [],
            "mandatory": false,
            "name": "Nom du contact associ\u00e9",
            "type": "T",
            "order": 10
        }
    },
    {
        "pk": 2,
        "model": "chimere.propertymodel",
        "fields": {
            "available": false,
            "subcategories": [],
            "mandatory": false,
            "name": "Code postal",
            "type": "T",
            "order": 20
        }
    },
    {
        "pk": 1,
        "model": "chimere.propertymodel",
        "fields": {
            "available": true,
            "subcategories": [],
            "mandatory": false,
            "name": "Adresse",
            "type": "T",
            "order": 20
        }
    },
    {
        "pk": 3,
        "model": "chimere.propertymodel",
        "fields": {
            "available": false,
            "subcategories": [],
            "mandatory": false,
            "name": "Commune",
            "type": "C",
            "order": 30
        }
    },
    {
        "pk": 5,
        "model": "chimere.propertymodel",
        "fields": {
            "available": true,
            "subcategories": [],
            "mandatory": false,
            "name": "Courriel",
            "type": "T",
            "order": 40
        }
    },
    {
        "pk": 6,
        "model": "chimere.propertymodel",
        "fields": {
            "available": true,
            "subcategories": [],
            "mandatory": false,
            "name": "T\u00e9l\u00e9phone",
            "type": "T",
            "order": 50
        }
    },
    {
        "pk": 7,
        "model": "chimere.propertymodel",
        "fields": {
            "available": true,
            "subcategories": [],
            "mandatory": false,
            "name": "Site web",
            "type": "T",
            "order": 60
        }
    },
    {
        "pk": 1,
        "model": "chimere.propertymodelchoice",
        "fields": {
            "available": true,
            "value": "Gif-sur-Yvette",
            "propertymodel": 3
        }
    },
    {
        "pk": 2,
        "model": "chimere.propertymodelchoice",
        "fields": {
            "available": true,
            "value": "Orsay",
            "propertymodel": 3
        }
    },
    {
        "pk": 3,
        "model": "chimere.propertymodelchoice",
        "fields": {
            "available": true,
            "value": "Palaiseau",
            "propertymodel": 3
        }
    },
    {
        "pk": 4,
        "model": "chimere.propertymodelchoice",
        "fields": {
            "available": true,
            "value": "Saint-Aubin",
            "propertymodel": 3
        }
    },
    {
        "pk": 5,
        "model": "chimere.propertymodelchoice",
        "fields": {
            "available": true,
            "value": "Villiers-le-B\u00e0cle",
            "propertymodel": 3
        }
    }
]